{
  "users": [
    {
      "id": 72589,
      "username": "brka",
      "password": "qwe123"
    },
    {
      "id": 38717,
      "username": "zile",
      "password": "qwe123"
    },
    {
      "id": 56652,
      "username": "pera",
      "password": "qwe123"
    },
    {
      "id": 91711,
      "username": "suncica",
      "password": "qwe123"
    }
  ],
  "posts": [
    {
      "id": 15013,
      "userId": 72589,
      "username": "brka",
      "text": "my first post",
      "date": "2022-11-13T17:11:18.871Z"
    },
    {
      "id": 92117,
      "userId": 38717,
      "username": "zile",
      "text": "bla truc",
      "date": "2022-11-13T17:12:03.204Z"
    },
    {
      "id": 20143,
      "userId": 56652,
      "username": "pera",
      "text": "i am pera peric",
      "date": "2022-11-13T17:13:10.803Z"
    },
    {
      "id": 56491,
      "userId": 91711,
      "username": "suncica",
      "text": "evo i ja nesto da napisem na ovoj mrezi posle duzeg vremena",
      "date": "2022-11-13T17:15:35.303Z"
    },
    {
      "id": 70715,
      "userId": 91711,
      "username": "suncica",
      "text": "test",
      "date": "2022-11-13T17:35:24.899Z"
    }
  ],
  "comments": [
    {
      "postId": 15013,
      "id": 100,
      "userId": 72589,
      "username": "brka",
      "comment": "my first comment. Edited",
      "date": "2022-11-13T17:11:26.054Z"
    },
    {
      "postId": 15013,
      "id": 71159,
      "userId": 38717,
      "username": "zile",
      "comment": "congratulations!",
      "date": "2022-11-13T17:12:22.371Z"
    },
    {
      "postId": 20143,
      "id": 96974,
      "userId": 38717,
      "username": "zile",
      "comment": "i am žika živac",
      "date": "2022-11-13T17:13:41.970Z"
    },
    {
      "postId": 92117,
      "id": 697,
      "userId": 56652,
      "username": "pera",
      "comment": "truc bla",
      "date": "2022-11-13T17:14:22.903Z"
    },
    {
      "postId": 15013,
      "id": 43724,
      "userId": 91711,
      "username": "suncica",
      "comment": "congratulations!±",
      "date": "2022-11-13T17:15:02.452Z"
    }
  ],
  "followers": [
    {
      "id": 72589,
      "followersList": []
    },
    {
      "id": 38717,
      "followersList": []
    },
    {
      "id": 56652,
      "followersList": []
    },
    {
      "id": 91711,
      "followersList": [
        null,
        null,
        null,
        null,
        38717
      ]
    }
  ]
}